<?xml version="1.0" encoding="UTF-8" standalone="no"?>
<!DOCTYPE log SYSTEM "logger.dtd">
<log>
<record>
  <date>2013-12-06T11:19:18</date>
  <millis>1386335958501</millis>
  <sequence>0</sequence>
  <logger>services.Configuracao</logger>
  <level>INFO</level>
  <class>services.Configuracao</class>
  <method>&lt;init&gt;</method>
  <thread>1</thread>
  <message>Endereço Local eth1 192.168.160.75</message>
</record>
<record>
  <date>2013-12-06T11:19:18</date>
  <millis>1386335958600</millis>
  <sequence>1</sequence>
  <logger>services.Configuracao</logger>
  <level>INFO</level>
  <class>client.HttpServer</class>
  <method>run</method>
  <thread>10</thread>
  <message>Iniciando Servidor HTTP</message>
</record>
<record>
  <date>2013-12-06T11:19:18</date>
  <millis>1386335958609</millis>
  <sequence>2</sequence>
  <logger>services.Configuracao</logger>
  <level>SEVERE</level>
  <class>client.PcmjServidor</class>
  <method>run</method>
  <thread>8</thread>
  <message>Error - ServerSocket não pode ser instanciado java.net.BindException: Endereço já em uso</message>
</record>
<record>
  <date>2013-12-06T11:19:18</date>
  <millis>1386335958610</millis>
  <sequence>3</sequence>
  <logger>services.Configuracao</logger>
  <level>SEVERE</level>
  <class>client.HttpServer</class>
  <method>run</method>
  <thread>10</thread>
  <message>Erro ao iniciar servidor HTTP ServerSocket java.net.BindException: Endereço já em uso</message>
</record>
</log>
